     /* адрес и смещения */
     .equ   CLOCK_STATUS,       0x00        /* состояние блока управления тактовой частотой */
     .equ   PER1_CLOCK,         0x10        /* управление тактовой частотой периферийных блоков */
     .equ   PER2_CLOCK,         0x1C        /* управление тактовой частотой периферийных блоков */
     .equ   CPU_CLOCK,          0x0C        /* управление тактовой частотой процессорного ядра */
     .equ   PLL_CONTROL,        0x04        /* управление блоками умножения частоты */
     .equ   HS_CONTROL,         0x08        /* управление высокочастотным генератором и осциллятором */
     .equ   ADC_MCO_CLOCK,      0x14        /* управление тактовой частотой АЦП */
     .equ   UART_CLOCK,         0x28        /* управление тактовой частотой UART */

     /* значения */
     .equ   HSE_Value,          8000000
     .equ   HSI_Value,          8000000
     .equ   LSI_Value,          40000
     .equ   LSE_Value,          32768
     .equ   CPU_Freq,           8000000



